{
  "project_info": {
    "project_number": "264808538775",
    "project_id": "aop-part6-chapter01-39d26",
    "storage_bucket": "aop-part6-chapter01-39d26.appspot.com"
  },
  "client": [
    {
      "client_info": {
        "mobilesdk_app_id": "1:264808538775:android:4765a4d46e3db9f793ffd2",
        "android_client_info": {
          "package_name": "com.example.aop_part6_chapter01"
        }
      },
      "oauth_client": [
        {
          "client_id": "264808538775-ldtc0ic8179fro5g2ol7ddntg67dap08.apps.googleusercontent.com",
          "client_type": 1,
          "android_info": {
            "package_name": "com.example.aop_part6_chapter01",
            "certificate_hash": "b94c1dd94a887c4a3636b173e281a00099142167"
          }
        },
        {
          "client_id": "264808538775-efua29rm7643ss3uu1qk73uvqepn21fg.apps.googleusercontent.com",
          "client_type": 3
        }
      ],
      "api_key": [
        {
          "current_key": "AIzaSyBxVfWKcm8FO7cNrr_tiXB00aDgHURQvX8"
        }
      ],
      "services": {
        "appinvite_service": {
          "other_platform_oauth_client": [
            {
              "client_id": "264808538775-efua29rm7643ss3uu1qk73uvqepn21fg.apps.googleusercontent.com",
              "client_type": 3
            }
          ]
        }
      }
    }
  ],
  "configuration_version": "1"
}